Sort method : quick
One time testing : 22043700ns / 0.0220437s
Average : 23926252.0ns / 0.023926252s
	test #0: 15662300ns
	test #1: 29937600ns
	test #2: 24909000ns
	test #3: 22974200ns
	test #4: 24939300ns
	test #5: 22935400ns
	test #6: 23937900ns
	test #7: 23896100ns
	test #8: 23937300ns
	test #9: 22936700ns
	test #10: 24934100ns
	test #11: 23935200ns
	test #12: 23963600ns
	test #13: 23949200ns
	test #14: 22950500ns
	test #15: 22936300ns
	test #16: 24891000ns
	test #17: 23931700ns
	test #18: 23897100ns
	test #19: 23959300ns
	test #20: 22934600ns
	test #21: 24943200ns
	test #22: 23948000ns
	test #23: 22956200ns
	test #24: 23881200ns
	test #25: 24958200ns
	test #26: 22898200ns
	test #27: 23924400ns
	test #28: 22994700ns
	test #29: 25901700ns
	test #30: 25897600ns
	test #31: 22970900ns
	test #32: 24938000ns
	test #33: 23902000ns
	test #34: 23891600ns
	test #35: 22986200ns
	test #36: 25920700ns
	test #37: 21980300ns
	test #38: 23896900ns
	test #39: 23979000ns
	test #40: 22943000ns
	test #41: 22974700ns
	test #42: 25954900ns
	test #43: 22933800ns
	test #44: 24934700ns
	test #45: 22000400ns
	test #46: 22970000ns
	test #47: 24878200ns
	test #48: 23934300ns
	test #49: 23994500ns
	test #50: 21005500ns
	test #51: 23004500ns
	test #52: 24902700ns
	test #53: 23957500ns
	test #54: 23937200ns
	test #55: 23919100ns
	test #56: 22932800ns
	test #57: 25950500ns
	test #58: 23918700ns
	test #59: 22941400ns
	test #60: 22898100ns
	test #61: 24986100ns
	test #62: 23920900ns
	test #63: 23899500ns
	test #64: 23970300ns
	test #65: 22946100ns
	test #66: 24952700ns
	test #67: 22937700ns
	test #68: 22929300ns
	test #69: 23993000ns
	test #70: 24932100ns
	test #71: 22883700ns
	test #72: 24000300ns
	test #73: 23919800ns
	test #74: 22950100ns
	test #75: 27865300ns
	test #76: 23977800ns
	test #77: 23926900ns
	test #78: 26893700ns
	test #79: 22938400ns
	test #80: 24958300ns
	test #81: 23940900ns
	test #82: 23944500ns
	test #83: 24896300ns
	test #84: 23995700ns
	test #85: 23875400ns
	test #86: 26963900ns
	test #87: 23901900ns
	test #88: 23968700ns
	test #89: 22972200ns
	test #90: 23902000ns
	test #91: 24983500ns
	test #92: 22887500ns
	test #93: 22940200ns
	test #94: 25930500ns
	test #95: 23975100ns
	test #96: 23930600ns
	test #97: 21946800ns
	test #98: 24929600ns
	test #99: 22954000ns
